2596915.9062833176
2448052.738219228
2412975.680983609
2441819.7354033515
2593891.480148037
2421224.5602324335
2455364.308197212
2409711.1967313415
2405590.5366976103
2475773.819471249
2422977.9402435157
2412753.923066098
2436046.7859752793
2405627.0280848225
2405835.043816513
2472522.9064033753
2501691.3933425723
2494821.091158359
2527795.076284858
2456404.2965539214
2407640.979201961
2421809.8198772273
2468718.0856425925
2476738.9958637934
2435955.930089837
2408546.7443255926
2483141.310610198
2490137.8550568586
2472758.4016265203
2413322.6767043243
2423281.1125125294
2431292.688152873
2445279.052174586
2440761.4557012366
2445311.5634853216
2491577.934422061
2397484.744804732
2426029.629494615
2436501.5570652587
2552402.3951924597
2396717.20966164
2432715.3795449003
2412552.021749895
2477619.789334592
2402691.096425199
2442757.1040105796
2442914.4854151662
2395195.043299445
2413532.7911728453
2545553.990911405
2390465.6004990777
2462688.487707746
2497879.1727837897
2440515.02877239
2498902.3328604153
2411442.952946895
2426261.563321881
2443331.907422439
2430731.325917578
2415949.6197507908
2391896.6868819534
2433819.9262217125
2437445.5295119174
2414888.020812155
2459643.2634569467
2456077.3941860143
2455309.10381828
2455334.445683905
2491111.3213175926
2487875.430989485
2427824.9969569226
2440178.3071516105
2418957.4495295878
2423050.5026481138
2407101.1493839817
2421031.742438816
2424087.916178478
2402063.4174958067
2438742.020375448
2438362.2827419345
2379206.4955223557
2455183.721226157
2379727.532476483
2432202.495041337
2427205.7668881365
2448374.4671448306
2542636.4728326364
2579200.7757388023
2474837.667857143
2441303.325802361
2410415.141159308
2503869.452636478
2414246.9615945304
2413369.841869049
2412577.321972637
2429468.2398047633
2514165.7126969616
2408583.8933039596
2380487.3111691843
2424804.9394724728
2500154.9815870463
