0.23733336123985513
0.07331495947056701
0.7581349350745438
0.25277027242011235
0.09362625378378936
0.36869465815592833
0.1001580327029033
0.3379684828351629
0.05147651835499227
0.08332096212692995
0.26457970303278516
0.2921010249112696
0.08721114767319221
0.10645884664314353
0.03260176330092817
0.1886237212406773
0.1393604464717794
0.012609153743828722
0.09086894885051097
0.4545710724808176
0.07345392211926777
0.04811205280690881
0.16133967226508397
0.09968694354561126
0.3081380065622575
0.09417179681194779
0.04381444794789772
0.06641234244635764
0.08141405012236688
0.03729847118374017
0.04371176417093508
0.12890502431466463
0.11920910416731026
0.09071015534639591
0.12174484327805042
0.05538140946619024
0.12244900690992276
0.017462247388765527
0.04285413757032873
0.09263726689006982
0.2111369678476644
0.13323842071153275
0.04981361860755785
0.05807874547112485
0.08640532574906129
0.02268093212785417
0.26082623671322863
0.05812333370590341
0.030441299992779784
0.49515854958463845
0.0753793704598771
0.04758757514207388
0.6129079585986166
0.08373171335113565
0.1429040861525357
0.11649240788661358
0.18505145858619784
0.3675354657262745
0.06323181114776
0.12292764567901746
0.10534190020777695
0.031046407213287875
0.054249056986972806
0.14019662963746402
0.17286728942579843
0.15550332334432063
0.0399284397809947
0.06372955554249216
0.10682639921358555
0.027922015488168153
0.45432002948282885
0.14197791462759407
0.04437497308000049
0.3038183516298782
0.04650615965512283
0.04378604086299345
0.09444626658806055
0.04596731720174326
0.5222610759305018
0.48253847267235334
0.29258670866266123
0.07075926584148334
0.33356632896434085
0.33663913602027407
0.3332201002086861
0.0970887453853667
0.11409738841854794
0.023066146699510046
0.1029930425952439
0.0972830846882498
0.14266558687580913
0.03366388117012721
0.18445272662326967
0.2267152258978499
0.09707352372570499
0.11739705032844326
0.38884139614355306
0.10382348221867452
0.09476820580993854
0.04390730927774648
0.03645006789753986
