634153.0689747484
624932.9381803095
631305.3010066834
623203.7273919362
623946.608825915
635157.1138570374
618585.7223632545
634627.4708946334
615553.7428476755
618726.9524067714
625120.430177486
628203.3362587359
618248.5793114667
619011.5722400787
615728.406665915
619647.921230353
618823.8219121238
616994.000103588
618934.6369009665
626931.3481709138
618496.3693535102
617403.2361087352
623018.1665831762
620738.9511382122
628280.190056659
629860.0689564154
615384.1725585004
616715.3953962795
624671.0341034243
615969.9823633913
624808.2023845066
617653.6562289614
629614.0116521784
618286.757519039
621518.3363045746
622468.8857995626
620289.0363031566
616170.2048121628
615385.0649640425
616995.6318107287
621637.9659052892
616979.344782623
615542.5370014117
620524.0022695048
616385.9370093506
617087.613318555
620264.1516023742
631658.3167997506
615593.4867263304
626016.1970527694
618089.1945247876
617882.4488733521
627960.1387011954
625814.6532325721
626614.6808702097
623541.1212114991
623492.7844162317
632905.7799145178
617137.1955114704
619547.0998314491
621874.0845988705
619106.3257362242
623687.7248372674
629561.9055480276
627489.4613343978
626172.2209397568
620882.3564371692
618257.393394957
622767.9349433611
616399.7205624563
625803.9807072583
620667.9956009036
615387.6068392353
631012.8031450822
615426.7658286503
615387.3939746512
616995.6318107293
615385.1175008984
629772.8337718989
624262.1643886652
620914.0500968797
616575.6652137749
626887.5127559075
627312.6592815786
622994.6150022249
617923.6605587869
620368.3463238063
616190.9876113922
621340.3740510719
617753.0761503106
623756.7232851157
616481.3945970737
624316.1877432218
620773.495712958
617719.4296542745
618342.4490442142
631480.8952261156
620523.9851734169
620037.295128052
615384.7442634449
616530.8303107035
