632648.0121807449
624474.7688499644
626519.1549727742
621630.7444527706
623362.4309904603
632815.3235073491
617966.1590731544
632482.6300595957
615236.8772122536
618211.4231570874
623466.4883997252
626368.3478749973
617709.3976299759
618352.5796596843
615527.6683481972
618479.1182627378
617961.4262710334
616916.2023815247
618372.2175023429
624081.4996178148
618042.0595120548
617106.190737747
622013.3798780367
620120.1554504255
626344.8888266085
629266.9184120782
615114.5453805352
616305.8202559695
624162.4641146194
615740.234977019
624535.0876965596
616857.4696332191
628863.4544291759
617725.9086408073
620761.6697800963
622124.1537571183
619529.4985382323
616062.6076466626
615121.3470017156
616424.0639205881
620325.4583530868
616157.2912475183
615235.9129896625
620163.6097136395
615853.3467326063
616947.6520958089
618646.3399580684
631291.1759283959
615406.0920663
622916.424331278
617623.2827810743
617588.4135987049
624111.3210342688
625290.647901018
625719.2228868145
622814.7431452366
622339.0019244897
630610.1510771017
616746.968485482
618785.5051677537
621218.9906212543
618914.1154652529
623349.3801279997
628681.073795467
626404.7373111565
625198.5023263366
620634.4477993684
617863.3807060377
622102.6543830043
616227.6093370118
622960.8278776044
619786.7841239886
615114.5287543627
629095.6704479933
615140.5544743737
615117.9401988598
616412.9024714726
615102.2414719245
626483.7753943237
621249.8592751528
619100.9895601086
616139.3807997124
624796.4270928717
625200.8793652273
620918.6717218198
617323.7262293111
619660.5222420755
616048.8560942406
620700.4366949641
617152.106902075
622866.8370951636
616273.8630329606
623164.6195121789
619371.695805663
617119.7876371708
617616.5332481076
629025.4360967386
619879.7355640078
619449.6969081067
615114.5453805331
616306.104404446
