%!PS-Adobe-3.0 EPSF-3.0
%%Title: /mnt/2CBC3044BC300ABA/Users/lvanhoorebee/Documents/Phd_doc/Matpower_Gitlab/output/boxplot_time.eps
%%Creator: matplotlib version 3.0.3, http://matplotlib.org/
%%CreationDate: Fri Feb 28 08:32:58 2020
%%Orientation: portrait
%%BoundingBox: 18 180 594 612
%%EndComments
%%BeginProlog
/mpldict 8 dict def
mpldict begin
/m { moveto } bind def
/l { lineto } bind def
/r { rlineto } bind def
/c { curveto } bind def
/cl { closepath } bind def
/box {
m
1 index 0 r
0 exch r
neg 0 r
cl
} bind def
/clipbox {
box
clip
newpath
} bind def
%!PS-Adobe-3.0 Resource-Font
%%Title: DejaVu Sans
%%Copyright: Copyright (c) 2003 by Bitstream, Inc. All Rights Reserved. Copyright (c) 2006 by Tavmjong Bah. All Rights Reserved. DejaVu changes are in public domain 
%%Creator: Converted from TrueType to type 3 by PPR
25 dict begin
/_d{bind def}bind def
/_m{moveto}_d
/_l{lineto}_d
/_cl{closepath eofill}_d
/_c{curveto}_d
/_sc{7 -1 roll{setcachedevice}{pop pop pop pop pop pop}ifelse}_d
/_e{exec}_d
/FontName /DejaVuSans def
/PaintType 0 def
/FontMatrix[.001 0 0 .001 0 0]def
/FontBBox[-1021 -463 1793 1232]def
/FontType 3 def
/Encoding [ /space /parenleft /parenright /hyphen /zero /one /two /three /four /five /six /seven /eight /nine /A /C /E /L /P /a /c /e /f /i /l /m /n /o /r /s /t /u /x ] def
/FontInfo 10 dict dup begin
/FamilyName (DejaVu Sans) def
/FullName (DejaVu Sans) def
/Notice (Copyright (c) 2003 by Bitstream, Inc. All Rights Reserved. Copyright (c) 2006 by Tavmjong Bah. All Rights Reserved. DejaVu changes are in public domain ) def
/Weight (Book) def
/Version (Version 2.35) def
/ItalicAngle 0.0 def
/isFixedPitch false def
/UnderlinePosition -130 def
/UnderlineThickness 90 def
end readonly def
/CharStrings 34 dict dup begin
/.notdef 0 def
/space{318 0 0 0 0 0 _sc
}_d
/parenleft{390 0 86 -131 310 759 _sc
310 759 _m
266 683 234 609 213 536 _c
191 463 181 389 181 314 _c
181 238 191 164 213 91 _c
234 17 266 -56 310 -131 _c
232 -131 _l
183 -54 146 20 122 94 _c
98 168 86 241 86 314 _c
86 386 98 459 122 533 _c
146 607 182 682 232 759 _c
310 759 _l
_cl}_d
/parenright{390 0 80 -131 304 759 _sc
80 759 _m
158 759 _l
206 682 243 607 267 533 _c
291 459 304 386 304 314 _c
304 241 291 168 267 94 _c
243 20 206 -54 158 -131 _c
80 -131 _l
123 -56 155 17 177 91 _c
198 164 209 238 209 314 _c
209 389 198 463 177 536 _c
155 609 123 683 80 759 _c
_cl}_d
/hyphen{361 0 49 234 312 314 _sc
49 314 _m
312 314 _l
312 234 _l
49 234 _l
49 314 _l
_cl}_d
/zero{636 0 66 -13 570 742 _sc
318 664 _m
267 664 229 639 203 589 _c
177 539 165 464 165 364 _c
165 264 177 189 203 139 _c
229 89 267 64 318 64 _c
369 64 407 89 433 139 _c
458 189 471 264 471 364 _c
471 464 458 539 433 589 _c
407 639 369 664 318 664 _c
318 742 _m
399 742 461 709 505 645 _c
548 580 570 486 570 364 _c
570 241 548 147 505 83 _c
461 19 399 -13 318 -13 _c
236 -13 173 19 130 83 _c
87 147 66 241 66 364 _c
66 486 87 580 130 645 _c
173 709 236 742 318 742 _c
_cl}_d
/one{636 0 110 0 544 729 _sc
124 83 _m
285 83 _l
285 639 _l
110 604 _l
110 694 _l
284 729 _l
383 729 _l
383 83 _l
544 83 _l
544 0 _l
124 0 _l
124 83 _l
_cl}_d
/two{{636 0 73 0 536 742 _sc
192 83 _m
536 83 _l
536 0 _l
73 0 _l
73 83 _l
110 121 161 173 226 239 _c
290 304 331 346 348 365 _c
380 400 402 430 414 455 _c
426 479 433 504 433 528 _c
433 566 419 598 392 622 _c
365 646 330 659 286 659 _c
255 659 222 653 188 643 _c
154 632 117 616 78 594 _c
78 694 _l
118 710 155 722 189 730 _c
223 738 255 742 284 742 _c
}_e{359 742 419 723 464 685 _c
509 647 532 597 532 534 _c
532 504 526 475 515 449 _c
504 422 484 390 454 354 _c
446 344 420 317 376 272 _c
332 227 271 164 192 83 _c
_cl}_e}_d
/three{{636 0 76 -13 556 742 _sc
406 393 _m
453 383 490 362 516 330 _c
542 298 556 258 556 212 _c
556 140 531 84 482 45 _c
432 6 362 -13 271 -13 _c
240 -13 208 -10 176 -4 _c
144 1 110 10 76 22 _c
76 117 _l
103 101 133 89 166 81 _c
198 73 232 69 268 69 _c
330 69 377 81 409 105 _c
441 129 458 165 458 212 _c
458 254 443 288 413 312 _c
383 336 341 349 287 349 _c
}_e{202 349 _l
202 430 _l
291 430 _l
339 430 376 439 402 459 _c
428 478 441 506 441 543 _c
441 580 427 609 401 629 _c
374 649 336 659 287 659 _c
260 659 231 656 200 650 _c
169 644 135 635 98 623 _c
98 711 _l
135 721 170 729 203 734 _c
235 739 266 742 296 742 _c
370 742 429 725 473 691 _c
517 657 539 611 539 553 _c
539 513 527 479 504 451 _c
481 423 448 403 406 393 _c
_cl}_e}_d
/four{636 0 49 0 580 729 _sc
378 643 _m
129 254 _l
378 254 _l
378 643 _l
352 729 _m
476 729 _l
476 254 _l
580 254 _l
580 172 _l
476 172 _l
476 0 _l
378 0 _l
378 172 _l
49 172 _l
49 267 _l
352 729 _l
_cl}_d
/five{{636 0 77 -13 549 729 _sc
108 729 _m
495 729 _l
495 646 _l
198 646 _l
198 467 _l
212 472 227 476 241 478 _c
255 480 270 482 284 482 _c
365 482 429 459 477 415 _c
525 370 549 310 549 234 _c
549 155 524 94 475 51 _c
426 8 357 -13 269 -13 _c
238 -13 207 -10 175 -6 _c
143 -1 111 6 77 17 _c
77 116 _l
106 100 136 88 168 80 _c
199 72 232 69 267 69 _c
}_e{323 69 368 83 401 113 _c
433 143 450 183 450 234 _c
450 284 433 324 401 354 _c
368 384 323 399 267 399 _c
241 399 214 396 188 390 _c
162 384 135 375 108 363 _c
108 729 _l
_cl}_e}_d
/six{{636 0 70 -13 573 742 _sc
330 404 _m
286 404 251 388 225 358 _c
199 328 186 286 186 234 _c
186 181 199 139 225 109 _c
251 79 286 64 330 64 _c
374 64 409 79 435 109 _c
461 139 474 181 474 234 _c
474 286 461 328 435 358 _c
409 388 374 404 330 404 _c
526 713 _m
526 623 _l
501 635 476 644 451 650 _c
425 656 400 659 376 659 _c
310 659 260 637 226 593 _c
}_e{192 549 172 482 168 394 _c
187 422 211 444 240 459 _c
269 474 301 482 336 482 _c
409 482 467 459 509 415 _c
551 371 573 310 573 234 _c
573 159 550 99 506 54 _c
462 9 403 -13 330 -13 _c
246 -13 181 19 137 83 _c
92 147 70 241 70 364 _c
70 479 97 571 152 639 _c
206 707 280 742 372 742 _c
396 742 421 739 447 735 _c
472 730 498 723 526 713 _c
_cl}_e}_d
/seven{636 0 82 0 551 729 _sc
82 729 _m
551 729 _l
551 687 _l
286 0 _l
183 0 _l
432 646 _l
82 646 _l
82 729 _l
_cl}_d
/eight{{636 0 68 -13 568 742 _sc
318 346 _m
271 346 234 333 207 308 _c
180 283 167 249 167 205 _c
167 161 180 126 207 101 _c
234 76 271 64 318 64 _c
364 64 401 76 428 102 _c
455 127 469 161 469 205 _c
469 249 455 283 429 308 _c
402 333 365 346 318 346 _c
219 388 _m
177 398 144 418 120 447 _c
96 476 85 511 85 553 _c
85 611 105 657 147 691 _c
188 725 245 742 318 742 _c
}_e{390 742 447 725 489 691 _c
530 657 551 611 551 553 _c
551 511 539 476 515 447 _c
491 418 459 398 417 388 _c
464 377 501 355 528 323 _c
554 291 568 251 568 205 _c
568 134 546 80 503 43 _c
459 5 398 -13 318 -13 _c
237 -13 175 5 132 43 _c
89 80 68 134 68 205 _c
68 251 81 291 108 323 _c
134 355 171 377 219 388 _c
183 544 _m
183 506 194 476 218 455 _c
}_e{242 434 275 424 318 424 _c
360 424 393 434 417 455 _c
441 476 453 506 453 544 _c
453 582 441 611 417 632 _c
393 653 360 664 318 664 _c
275 664 242 653 218 632 _c
194 611 183 582 183 544 _c
_cl}_e}_d
/nine{{636 0 63 -13 566 742 _sc
110 15 _m
110 105 _l
134 93 159 84 185 78 _c
210 72 235 69 260 69 _c
324 69 374 90 408 134 _c
442 178 462 244 468 334 _c
448 306 424 284 396 269 _c
367 254 335 247 300 247 _c
226 247 168 269 126 313 _c
84 357 63 417 63 494 _c
63 568 85 628 129 674 _c
173 719 232 742 306 742 _c
390 742 455 709 499 645 _c
543 580 566 486 566 364 _c
}_e{566 248 538 157 484 89 _c
429 21 356 -13 264 -13 _c
239 -13 214 -10 189 -6 _c
163 -2 137 5 110 15 _c
306 324 _m
350 324 385 339 411 369 _c
437 399 450 441 450 494 _c
450 546 437 588 411 618 _c
385 648 350 664 306 664 _c
262 664 227 648 201 618 _c
175 588 162 546 162 494 _c
162 441 175 399 201 369 _c
227 339 262 324 306 324 _c
_cl}_e}_d
/A{684 0 8 0 676 729 _sc
342 632 _m
208 269 _l
476 269 _l
342 632 _l
286 729 _m
398 729 _l
676 0 _l
573 0 _l
507 187 _l
178 187 _l
112 0 _l
8 0 _l
286 729 _l
_cl}_d
/C{{698 0 56 -13 644 742 _sc
644 673 _m
644 569 _l
610 599 575 622 537 638 _c
499 653 460 661 418 661 _c
334 661 270 635 226 584 _c
182 533 160 460 160 364 _c
160 268 182 194 226 143 _c
270 92 334 67 418 67 _c
460 67 499 74 537 90 _c
575 105 610 128 644 159 _c
644 56 _l
609 32 572 15 534 4 _c
496 -7 455 -13 412 -13 _c
302 -13 215 20 151 87 _c
}_e{87 154 56 246 56 364 _c
56 481 87 573 151 641 _c
215 708 302 742 412 742 _c
456 742 497 736 535 725 _c
573 713 610 696 644 673 _c
_cl}_e}_d
/E{632 0 98 0 568 729 _sc
98 729 _m
559 729 _l
559 646 _l
197 646 _l
197 430 _l
544 430 _l
544 347 _l
197 347 _l
197 83 _l
568 83 _l
568 0 _l
98 0 _l
98 729 _l
_cl}_d
/L{557 0 98 0 552 729 _sc
98 729 _m
197 729 _l
197 83 _l
552 83 _l
552 0 _l
98 0 _l
98 729 _l
_cl}_d
/P{603 0 98 0 569 729 _sc
197 648 _m
197 374 _l
321 374 _l
367 374 402 385 427 409 _c
452 433 465 467 465 511 _c
465 555 452 588 427 612 _c
402 636 367 648 321 648 _c
197 648 _l
98 729 _m
321 729 _l
402 729 464 710 506 673 _c
548 636 569 582 569 511 _c
569 439 548 384 506 348 _c
464 311 402 293 321 293 _c
197 293 _l
197 0 _l
98 0 _l
98 729 _l
_cl}_d
/a{{613 0 60 -13 522 560 _sc
343 275 _m
270 275 220 266 192 250 _c
164 233 150 205 150 165 _c
150 133 160 107 181 89 _c
202 70 231 61 267 61 _c
317 61 357 78 387 114 _c
417 149 432 196 432 255 _c
432 275 _l
343 275 _l
522 312 _m
522 0 _l
432 0 _l
432 83 _l
411 49 385 25 355 10 _c
325 -5 287 -13 243 -13 _c
187 -13 142 2 109 33 _c
76 64 60 106 60 159 _c
}_e{60 220 80 266 122 298 _c
163 329 224 345 306 345 _c
432 345 _l
432 354 _l
432 395 418 427 391 450 _c
364 472 326 484 277 484 _c
245 484 215 480 185 472 _c
155 464 127 453 100 439 _c
100 522 _l
132 534 164 544 195 550 _c
226 556 256 560 286 560 _c
365 560 424 539 463 498 _c
502 457 522 395 522 312 _c
_cl}_e}_d
/c{{550 0 55 -13 488 560 _sc
488 526 _m
488 442 _l
462 456 437 466 411 473 _c
385 480 360 484 334 484 _c
276 484 230 465 198 428 _c
166 391 150 339 150 273 _c
150 206 166 154 198 117 _c
230 80 276 62 334 62 _c
360 62 385 65 411 72 _c
437 79 462 90 488 104 _c
488 21 _l
462 9 436 0 410 -5 _c
383 -10 354 -13 324 -13 _c
242 -13 176 12 128 64 _c
}_e{79 115 55 185 55 273 _c
55 362 79 432 128 483 _c
177 534 244 560 330 560 _c
358 560 385 557 411 551 _c
437 545 463 537 488 526 _c
_cl}_e}_d
/e{{615 0 55 -13 562 560 _sc
562 296 _m
562 252 _l
149 252 _l
153 190 171 142 205 110 _c
238 78 284 62 344 62 _c
378 62 412 66 444 74 _c
476 82 509 95 541 113 _c
541 28 _l
509 14 476 3 442 -3 _c
408 -9 373 -13 339 -13 _c
251 -13 182 12 131 62 _c
80 112 55 181 55 268 _c
55 357 79 428 127 481 _c
175 533 241 560 323 560 _c
397 560 455 536 498 489 _c
}_e{540 441 562 377 562 296 _c
472 322 _m
471 371 457 410 431 440 _c
404 469 368 484 324 484 _c
274 484 234 469 204 441 _c
174 413 156 373 152 322 _c
472 322 _l
_cl}_e}_d
/f{352 0 23 0 371 760 _sc
371 760 _m
371 685 _l
285 685 _l
253 685 230 678 218 665 _c
205 652 199 629 199 595 _c
199 547 _l
347 547 _l
347 477 _l
199 477 _l
199 0 _l
109 0 _l
109 477 _l
23 477 _l
23 547 _l
109 547 _l
109 585 _l
109 645 123 690 151 718 _c
179 746 224 760 286 760 _c
371 760 _l
_cl}_d
/i{278 0 94 0 184 760 _sc
94 547 _m
184 547 _l
184 0 _l
94 0 _l
94 547 _l
94 760 _m
184 760 _l
184 646 _l
94 646 _l
94 760 _l
_cl}_d
/l{278 0 94 0 184 760 _sc
94 760 _m
184 760 _l
184 0 _l
94 0 _l
94 760 _l
_cl}_d
/m{{974 0 91 0 889 560 _sc
520 442 _m
542 482 569 511 600 531 _c
631 550 668 560 711 560 _c
767 560 811 540 842 500 _c
873 460 889 403 889 330 _c
889 0 _l
799 0 _l
799 327 _l
799 379 789 418 771 444 _c
752 469 724 482 686 482 _c
639 482 602 466 575 435 _c
548 404 535 362 535 309 _c
535 0 _l
445 0 _l
445 327 _l
445 379 435 418 417 444 _c
398 469 369 482 331 482 _c
}_e{285 482 248 466 221 435 _c
194 404 181 362 181 309 _c
181 0 _l
91 0 _l
91 547 _l
181 547 _l
181 462 _l
201 495 226 520 255 536 _c
283 552 317 560 357 560 _c
397 560 430 550 458 530 _c
486 510 506 480 520 442 _c
_cl}_e}_d
/n{634 0 91 0 549 560 _sc
549 330 _m
549 0 _l
459 0 _l
459 327 _l
459 379 448 417 428 443 _c
408 469 378 482 338 482 _c
289 482 251 466 223 435 _c
195 404 181 362 181 309 _c
181 0 _l
91 0 _l
91 547 _l
181 547 _l
181 462 _l
202 494 227 519 257 535 _c
286 551 320 560 358 560 _c
420 560 468 540 500 501 _c
532 462 549 405 549 330 _c
_cl}_d
/o{612 0 55 -13 557 560 _sc
306 484 _m
258 484 220 465 192 427 _c
164 389 150 338 150 273 _c
150 207 163 156 191 118 _c
219 80 257 62 306 62 _c
354 62 392 80 420 118 _c
448 156 462 207 462 273 _c
462 337 448 389 420 427 _c
392 465 354 484 306 484 _c
306 560 _m
384 560 445 534 490 484 _c
534 433 557 363 557 273 _c
557 183 534 113 490 63 _c
445 12 384 -13 306 -13 _c
227 -13 165 12 121 63 _c
77 113 55 183 55 273 _c
55 363 77 433 121 484 _c
165 534 227 560 306 560 _c
_cl}_d
/r{411 0 91 0 411 560 _sc
411 463 _m
401 469 390 473 378 476 _c
366 478 353 480 339 480 _c
288 480 249 463 222 430 _c
194 397 181 350 181 288 _c
181 0 _l
91 0 _l
91 547 _l
181 547 _l
181 462 _l
199 495 224 520 254 536 _c
284 552 321 560 365 560 _c
371 560 378 559 386 559 _c
393 558 401 557 411 555 _c
411 463 _l
_cl}_d
/s{{521 0 54 -13 472 560 _sc
443 531 _m
443 446 _l
417 458 391 468 364 475 _c
336 481 308 485 279 485 _c
234 485 200 478 178 464 _c
156 450 145 430 145 403 _c
145 382 153 366 169 354 _c
185 342 217 330 265 320 _c
296 313 _l
360 299 405 279 432 255 _c
458 230 472 195 472 151 _c
472 100 452 60 412 31 _c
372 1 316 -13 246 -13 _c
216 -13 186 -10 154 -5 _c
}_e{122 0 89 8 54 20 _c
54 113 _l
87 95 120 82 152 74 _c
184 65 216 61 248 61 _c
290 61 323 68 346 82 _c
368 96 380 117 380 144 _c
380 168 371 187 355 200 _c
339 213 303 226 247 238 _c
216 245 _l
160 257 119 275 95 299 _c
70 323 58 356 58 399 _c
58 450 76 490 112 518 _c
148 546 200 560 268 560 _c
301 560 332 557 362 552 _c
391 547 418 540 443 531 _c
}_e{_cl}_e}_d
/t{392 0 27 0 368 702 _sc
183 702 _m
183 547 _l
368 547 _l
368 477 _l
183 477 _l
183 180 _l
183 135 189 106 201 94 _c
213 81 238 75 276 75 _c
368 75 _l
368 0 _l
276 0 _l
206 0 158 13 132 39 _c
106 65 93 112 93 180 _c
93 477 _l
27 477 _l
27 547 _l
93 547 _l
93 702 _l
183 702 _l
_cl}_d
/u{634 0 85 -13 543 560 _sc
85 216 _m
85 547 _l
175 547 _l
175 219 _l
175 167 185 129 205 103 _c
225 77 255 64 296 64 _c
344 64 383 79 411 110 _c
439 141 453 183 453 237 _c
453 547 _l
543 547 _l
543 0 _l
453 0 _l
453 84 _l
431 50 405 26 377 10 _c
348 -5 315 -13 277 -13 _c
214 -13 166 6 134 45 _c
101 83 85 140 85 216 _c
311 560 _m
311 560 _l
_cl}_d
/x{592 0 29 0 559 547 _sc
549 547 _m
351 281 _l
559 0 _l
453 0 _l
294 215 _l
135 0 _l
29 0 _l
241 286 _l
47 547 _l
153 547 _l
298 352 _l
443 547 _l
549 547 _l
_cl}_d
end readonly def

/BuildGlyph
 {exch begin
 CharStrings exch
 2 copy known not{pop /.notdef}if
 true 3 1 roll get exec
 end}_d

/BuildChar {
 1 index /Encoding get exch get
 1 index /BuildGlyph get exec
}_d

FontName currentdict end definefont pop
end
%%EndProlog
mpldict begin
18 180 translate
576 432 0 0 clipbox
gsave
0 0 m
576 0 l
576 432 l
0 432 l
cl
1.000 setgray
fill
grestore
gsave
72 228.96 m
518.4 228.96 l
518.4 380.16 l
72 380.16 l
cl
1.000 setgray
fill
grestore
1.000 setlinewidth
0 setlinejoin
0 setlinecap
[] 0 setdash
1.000 0.000 0.000 setrgbcolor
gsave
446.4 151.2 72 229 clipbox
96.8 250.275407 m
493.6 250.275407 l
493.6 286.357288 l
96.8 286.357288 l
cl
stroke
grestore
0.800 setlinewidth
1 setlinejoin
[] 0 setdash
0.000 setgray
gsave
/o {
gsave
newpath
translate
0.8 setlinewidth
1 setlinejoin
0 setlinecap
0 0 m
0 -3.5 l

gsave
0.000 setgray
fill
grestore
stroke
grestore
} bind def
146.4 228.96 o
grestore
gsave
/o {
gsave
newpath
translate
0.8 setlinewidth
1 setlinejoin
0 setlinecap
0 0 m
0 -3.5 l

gsave
0.000 setgray
fill
grestore
stroke
grestore
} bind def
295.2 228.96 o
grestore
gsave
/o {
gsave
newpath
translate
0.8 setlinewidth
1 setlinejoin
0 setlinecap
0 0 m
0 -3.5 l

gsave
0.000 setgray
fill
grestore
stroke
grestore
} bind def
444 228.96 o
grestore
gsave
/o {
gsave
newpath
translate
0.8 setlinewidth
1 setlinejoin
0 setlinecap
0 0 m
-3.5 0 l

gsave
0.000 setgray
fill
grestore
stroke
grestore
} bind def
72 235.241 o
grestore
/DejaVuSans findfont
10.000 scalefont
setfont
gsave
58.640625 231.444416 translate
0.000000 rotate
0.000000 0.000000 m /zero glyphshow
grestore
gsave
/o {
gsave
newpath
translate
0.8 setlinewidth
1 setlinejoin
0 setlinecap
0 0 m
-3.5 0 l

gsave
0.000 setgray
fill
grestore
stroke
grestore
} bind def
72 265.31 o
grestore
gsave
45.921875 261.512649 translate
0.000000 rotate
0.000000 0.000000 m /one glyphshow
6.362305 0.000000 m /zero glyphshow
12.724609 0.000000 m /zero glyphshow
grestore
gsave
/o {
gsave
newpath
translate
0.8 setlinewidth
1 setlinejoin
0 setlinecap
0 0 m
-3.5 0 l

gsave
0.000 setgray
fill
grestore
stroke
grestore
} bind def
72 295.378 o
grestore
gsave
45.921875 291.580883 translate
0.000000 rotate
0.000000 0.000000 m /two glyphshow
6.362305 0.000000 m /zero glyphshow
12.724609 0.000000 m /zero glyphshow
grestore
gsave
/o {
gsave
newpath
translate
0.8 setlinewidth
1 setlinejoin
0 setlinecap
0 0 m
-3.5 0 l

gsave
0.000 setgray
fill
grestore
stroke
grestore
} bind def
72 325.446 o
grestore
gsave
45.921875 321.649117 translate
0.000000 rotate
0.000000 0.000000 m /three glyphshow
6.362305 0.000000 m /zero glyphshow
12.724609 0.000000 m /zero glyphshow
grestore
gsave
/o {
gsave
newpath
translate
0.8 setlinewidth
1 setlinejoin
0 setlinecap
0 0 m
-3.5 0 l

gsave
0.000 setgray
fill
grestore
stroke
grestore
} bind def
72 355.514 o
grestore
gsave
45.921875 351.717350 translate
0.000000 rotate
0.000000 0.000000 m /four glyphshow
6.362305 0.000000 m /zero glyphshow
12.724609 0.000000 m /zero glyphshow
grestore
/DejaVuSans findfont
14.000 scalefont
setfont
gsave
33.381750 240.614688 translate
90.000000 rotate
0.000000 0.000000 m /E glyphshow
8.845703 0.000000 m /x glyphshow
17.130859 0.000000 m /e glyphshow
25.744141 0.000000 m /c glyphshow
33.441406 0.000000 m /u glyphshow
42.314453 0.000000 m /t glyphshow
47.803711 0.000000 m /i glyphshow
51.693359 0.000000 m /o glyphshow
60.258789 0.000000 m /n glyphshow
69.131836 0.000000 m /space glyphshow
73.582031 0.000000 m /t glyphshow
79.071289 0.000000 m /i glyphshow
82.960938 0.000000 m /m glyphshow
96.598633 0.000000 m /e glyphshow
105.211914 0.000000 m /space glyphshow
109.662109 0.000000 m /parenleft glyphshow
115.124023 0.000000 m /s glyphshow
122.417969 0.000000 m /parenright glyphshow
grestore
1.000 setlinewidth
2 setlinecap
0.678 0.847 0.902 setrgbcolor
gsave
446.4 151.2 72 229 clipbox
121.6 256.962825 m
121.6 246.373357 l
stroke
grestore
gsave
446.4 151.2 72 229 clipbox
121.6 273.837538 m
121.6 298.828872 l
stroke
grestore
gsave
446.4 151.2 72 229 clipbox
114.16 246.373357 m
129.04 246.373357 l
stroke
grestore
gsave
446.4 151.2 72 229 clipbox
114.16 298.828872 m
129.04 298.828872 l
stroke
grestore
0.565 0.933 0.565 setrgbcolor
gsave
446.4 151.2 72 229 clipbox
171.2 267.950307 m
171.2 262.98105 l
stroke
grestore
gsave
446.4 151.2 72 229 clipbox
171.2 271.728383 m
171.2 277.270051 l
stroke
grestore
gsave
446.4 151.2 72 229 clipbox
163.76 262.98105 m
178.64 262.98105 l
stroke
grestore
gsave
446.4 151.2 72 229 clipbox
163.76 277.270051 m
178.64 277.270051 l
stroke
grestore
0 setlinecap
0.000 setgray
gsave
446.4 151.2 72 229 clipbox
/o {
gsave
newpath
translate
1.0 setlinewidth
1 setlinejoin
0 setlinecap
0 -3 m
0.795609 -3 1.55874 -2.683901 2.12132 -2.12132 c
2.683901 -1.55874 3 -0.795609 3 0 c
3 0.795609 2.683901 1.55874 2.12132 2.12132 c
1.55874 2.683901 0.795609 3 0 3 c
-0.795609 3 -1.55874 2.683901 -2.12132 2.12132 c
-2.683901 1.55874 -3 0.795609 -3 0 c
-3 -0.795609 -2.683901 -1.55874 -2.12132 -2.12132 c
-1.55874 -2.683901 -0.795609 -3 0 -3 c
cl

gsave
grestore
stroke
grestore
} bind def
171.2 248.357 o
171.2 254.412 o
171.2 258.029 o
171.2 259.03 o
171.2 251.474 o
171.2 257.538 o
171.2 255.578 o
171.2 248.267 o
171.2 277.648 o
171.2 284.584 o
171.2 279.217 o
171.2 280.407 o
171.2 280.668 o
grestore
2 setlinecap
0.678 0.847 0.902 setrgbcolor
gsave
446.4 151.2 72 229 clipbox
270.4 246.098321 m
270.4 235.832727 l
stroke
grestore
gsave
446.4 151.2 72 229 clipbox
270.4 263.159558 m
270.4 268.086571 l
stroke
grestore
gsave
446.4 151.2 72 229 clipbox
262.96 235.832727 m
277.84 235.832727 l
stroke
grestore
gsave
446.4 151.2 72 229 clipbox
262.96 268.086571 m
277.84 268.086571 l
stroke
grestore
0.565 0.933 0.565 setrgbcolor
gsave
446.4 151.2 72 229 clipbox
320 264.839663 m
320 260.617539 l
stroke
grestore
gsave
446.4 151.2 72 229 clipbox
320 267.958859 m
320 272.400299 l
stroke
grestore
gsave
446.4 151.2 72 229 clipbox
312.56 260.617539 m
327.44 260.617539 l
stroke
grestore
gsave
446.4 151.2 72 229 clipbox
312.56 272.400299 m
327.44 272.400299 l
stroke
grestore
0 setlinecap
0.000 setgray
gsave
446.4 151.2 72 229 clipbox
/o {
gsave
newpath
translate
1.0 setlinewidth
1 setlinejoin
0 setlinecap
0 -3 m
0.795609 -3 1.55874 -2.683901 2.12132 -2.12132 c
2.683901 -1.55874 3 -0.795609 3 0 c
3 0.795609 2.683901 1.55874 2.12132 2.12132 c
1.55874 2.683901 0.795609 3 0 3 c
-0.795609 3 -1.55874 2.683901 -2.12132 2.12132 c
-2.683901 1.55874 -3 0.795609 -3 0 c
-3 -0.795609 -2.683901 -1.55874 -2.12132 -2.12132 c
-1.55874 -2.683901 -0.795609 -3 0 -3 c
cl

gsave
grestore
stroke
grestore
} bind def
320 258.937 o
320 239.913 o
320 242.011 o
320 251.025 o
320 254.494 o
320 247.18 o
320 241.766 o
320 251.36 o
320 250.371 o
320 246.386 o
320 259.69 o
320 238.662 o
320 251.822 o
320 273.593 o
320 274.378 o
320 273.92 o
320 273.825 o
320 274.565 o
320 275.298 o
320 277.133 o
320 272.82 o
320 274.179 o
320 273.961 o
320 274.23 o
320 274.93 o
grestore
2 setlinecap
0.678 0.847 0.902 setrgbcolor
gsave
446.4 151.2 72 229 clipbox
419.2 303.158575 m
419.2 236.361026 l
stroke
grestore
gsave
446.4 151.2 72 229 clipbox
419.2 362.753856 m
419.2 370.933231 l
stroke
grestore
gsave
446.4 151.2 72 229 clipbox
411.76 236.361026 m
426.64 236.361026 l
stroke
grestore
gsave
446.4 151.2 72 229 clipbox
411.76 370.933231 m
426.64 370.933231 l
stroke
grestore
0.565 0.933 0.565 setrgbcolor
gsave
446.4 151.2 72 229 clipbox
468.8 370.722296 m
468.8 370.706507 l
stroke
grestore
gsave
446.4 151.2 72 229 clipbox
468.8 371.694959 m
468.8 373.002139 l
stroke
grestore
gsave
446.4 151.2 72 229 clipbox
461.36 370.706507 m
476.24 370.706507 l
stroke
grestore
gsave
446.4 151.2 72 229 clipbox
461.36 373.002139 m
476.24 373.002139 l
stroke
grestore
0 setlinecap
0.000 setgray
gsave
446.4 151.2 72 229 clipbox
/o {
gsave
newpath
translate
1.0 setlinewidth
1 setlinejoin
0 setlinecap
0 -3 m
0.795609 -3 1.55874 -2.683901 2.12132 -2.12132 c
2.683901 -1.55874 3 -0.795609 3 0 c
3 0.795609 2.683901 1.55874 2.12132 2.12132 c
1.55874 2.683901 0.795609 3 0 3 c
-0.795609 3 -1.55874 2.683901 -2.12132 2.12132 c
-2.683901 1.55874 -3 0.795609 -3 0 c
-3 -0.795609 -2.683901 -1.55874 -2.12132 -2.12132 c
-1.55874 -2.683901 -0.795609 -3 0 -3 c
cl

gsave
grestore
stroke
grestore
} bind def
468.8 352.459 o
468.8 248.235 o
468.8 324.608 o
468.8 344.165 o
468.8 354.126 o
468.8 357.217 o
468.8 344.635 o
468.8 314.103 o
468.8 368.572 o
468.8 330.093 o
468.8 304.445 o
468.8 367.892 o
468.8 359.591 o
468.8 351.573 o
468.8 307.134 o
468.8 351.947 o
468.8 290.464 o
468.8 325.206 o
468.8 303.197 o
468.8 255.601 o
468.8 346.223 o
468.8 373.287 o
grestore
0 setlinejoin
[] 0 setdash
0.678 0.847 0.902 setrgbcolor
gsave
446.4 151.2 72 229 clipbox
106.72 256.962825 m
136.48 256.962825 l
136.48 273.837538 l
106.72 273.837538 l
106.72 256.962825 l
cl
gsave
fill
grestore
stroke
grestore
0.565 0.933 0.565 setrgbcolor
gsave
446.4 151.2 72 229 clipbox
156.32 267.950307 m
186.08 267.950307 l
186.08 271.728383 l
156.32 271.728383 l
156.32 267.950307 l
cl
gsave
fill
grestore
stroke
grestore
0.678 0.847 0.902 setrgbcolor
gsave
446.4 151.2 72 229 clipbox
255.52 246.098321 m
285.28 246.098321 l
285.28 263.159558 l
255.52 263.159558 l
255.52 246.098321 l
cl
gsave
fill
grestore
stroke
grestore
0.565 0.933 0.565 setrgbcolor
gsave
446.4 151.2 72 229 clipbox
305.12 264.839663 m
334.88 264.839663 l
334.88 267.958859 l
305.12 267.958859 l
305.12 264.839663 l
cl
gsave
fill
grestore
stroke
grestore
0.678 0.847 0.902 setrgbcolor
gsave
446.4 151.2 72 229 clipbox
404.32 303.158575 m
434.08 303.158575 l
434.08 362.753856 l
404.32 362.753856 l
404.32 303.158575 l
cl
gsave
fill
grestore
stroke
grestore
0.565 0.933 0.565 setrgbcolor
gsave
446.4 151.2 72 229 clipbox
453.92 370.722296 m
483.68 370.722296 l
483.68 371.694959 l
453.92 371.694959 l
453.92 370.722296 l
cl
gsave
fill
grestore
stroke
grestore
1 setlinejoin
2 setlinecap
[] 0 setdash
1.000 0.647 0.000 setrgbcolor
gsave
446.4 151.2 72 229 clipbox
106.72 267.858479 m
136.48 267.858479 l
stroke
grestore
0 setlinecap
[3.7 1.6] 0 setdash
0.173 0.627 0.173 setrgbcolor
gsave
446.4 151.2 72 229 clipbox
121.6 267.48829 m
stroke
grestore
0 setlinejoin
[] 0 setdash
gsave
446.4 151.2 72 229 clipbox
/o {
gsave
newpath
translate
1.0 setlinewidth
0 setlinejoin
0 setlinecap
0 3 m
-3 -3 l
3 -3 l
cl

gsave
0.173 0.627 0.173 setrgbcolor
fill
grestore
stroke
grestore
} bind def
121.6 267.488 o
grestore
1 setlinejoin
2 setlinecap
1.000 0.647 0.000 setrgbcolor
gsave
446.4 151.2 72 229 clipbox
156.32 269.280752 m
186.08 269.280752 l
stroke
grestore
0 setlinecap
[3.7 1.6] 0 setdash
0.173 0.627 0.173 setrgbcolor
gsave
446.4 151.2 72 229 clipbox
171.2 269.156856 m
stroke
grestore
0 setlinejoin
[] 0 setdash
gsave
446.4 151.2 72 229 clipbox
/o {
gsave
newpath
translate
1.0 setlinewidth
0 setlinejoin
0 setlinecap
0 3 m
-3 -3 l
3 -3 l
cl

gsave
0.173 0.627 0.173 setrgbcolor
fill
grestore
stroke
grestore
} bind def
171.2 269.157 o
grestore
1 setlinejoin
2 setlinecap
1.000 0.647 0.000 setrgbcolor
gsave
446.4 151.2 72 229 clipbox
255.52 253.512909 m
285.28 253.512909 l
stroke
grestore
0 setlinecap
[3.7 1.6] 0 setdash
0.173 0.627 0.173 setrgbcolor
gsave
446.4 151.2 72 229 clipbox
270.4 253.202818 m
stroke
grestore
0 setlinejoin
[] 0 setdash
gsave
446.4 151.2 72 229 clipbox
/o {
gsave
newpath
translate
1.0 setlinewidth
0 setlinejoin
0 setlinecap
0 3 m
-3 -3 l
3 -3 l
cl

gsave
0.173 0.627 0.173 setrgbcolor
fill
grestore
stroke
grestore
} bind def
270.4 253.203 o
grestore
1 setlinejoin
2 setlinecap
1.000 0.647 0.000 setrgbcolor
gsave
446.4 151.2 72 229 clipbox
305.12 266.332824 m
334.88 266.332824 l
stroke
grestore
0 setlinecap
[3.7 1.6] 0 setdash
0.173 0.627 0.173 setrgbcolor
gsave
446.4 151.2 72 229 clipbox
320 265.200776 m
stroke
grestore
0 setlinejoin
[] 0 setdash
gsave
446.4 151.2 72 229 clipbox
/o {
gsave
newpath
translate
1.0 setlinewidth
0 setlinejoin
0 setlinecap
0 3 m
-3 -3 l
3 -3 l
cl

gsave
0.173 0.627 0.173 setrgbcolor
fill
grestore
stroke
grestore
} bind def
320 265.201 o
grestore
1 setlinejoin
2 setlinecap
1.000 0.647 0.000 setrgbcolor
gsave
446.4 151.2 72 229 clipbox
404.32 336.777869 m
434.08 336.777869 l
stroke
grestore
0 setlinecap
[3.7 1.6] 0 setdash
0.173 0.627 0.173 setrgbcolor
gsave
446.4 151.2 72 229 clipbox
419.2 327.952978 m
stroke
grestore
0 setlinejoin
[] 0 setdash
gsave
446.4 151.2 72 229 clipbox
/o {
gsave
newpath
translate
1.0 setlinewidth
0 setlinejoin
0 setlinecap
0 3 m
-3 -3 l
3 -3 l
cl

gsave
0.173 0.627 0.173 setrgbcolor
fill
grestore
stroke
grestore
} bind def
419.2 327.953 o
grestore
1 setlinejoin
2 setlinecap
1.000 0.647 0.000 setrgbcolor
gsave
446.4 151.2 72 229 clipbox
453.92 371.069122 m
483.68 371.069122 l
stroke
grestore
0 setlinecap
[3.7 1.6] 0 setdash
0.173 0.627 0.173 setrgbcolor
gsave
446.4 151.2 72 229 clipbox
468.8 362.531602 m
stroke
grestore
0 setlinejoin
[] 0 setdash
gsave
446.4 151.2 72 229 clipbox
/o {
gsave
newpath
translate
1.0 setlinewidth
0 setlinejoin
0 setlinecap
0 3 m
-3 -3 l
3 -3 l
cl

gsave
0.173 0.627 0.173 setrgbcolor
fill
grestore
stroke
grestore
} bind def
468.8 362.532 o
grestore
0.800 setlinewidth
2 setlinecap
[] 0 setdash
0.000 setgray
gsave
72 228.96 m
72 380.16 l
stroke
grestore
gsave
518.4 228.96 m
518.4 380.16 l
stroke
grestore
gsave
72 228.96 m
518.4 228.96 l
stroke
grestore
gsave
72 380.16 m
518.4 380.16 l
stroke
grestore
1.000 setlinewidth
0 setlinecap
0.800 setgray
gsave
79 342.81625 m
154.5625 342.81625 l
155.895833 342.81625 156.5625 343.482917 156.5625 344.81625 c
156.5625 373.16 l
156.5625 374.493333 155.895833 375.16 154.5625 375.16 c
79 375.16 l
77.666667 375.16 77 374.493333 77 373.16 c
77 344.81625 l
77 343.482917 77.666667 342.81625 79 342.81625 c
cl
gsave
1.000 setgray
fill
grestore
stroke
grestore
1.500 setlinewidth
1 setlinejoin
2 setlinecap
[] 0 setdash
0.678 0.847 0.902 setrgbcolor
gsave
81 367.06625 m
101 367.06625 l
stroke
grestore
0.000 setgray
/DejaVuSans findfont
10.000 scalefont
setfont
gsave
109.000000 363.566250 translate
0.000000 rotate
0.000000 0.000000 m /C glyphshow
6.982422 0.000000 m /a glyphshow
13.110352 0.000000 m /s glyphshow
18.320312 0.000000 m /e glyphshow
24.472656 0.000000 m /five glyphshow
30.834961 0.000000 m /seven glyphshow
grestore
0.565 0.933 0.565 setrgbcolor
gsave
81 352.394375 m
101 352.394375 l
stroke
grestore
0.000 setgray
gsave
109.000000 348.894375 translate
0.000000 rotate
0.000000 0.000000 m /C glyphshow
6.982422 0.000000 m /a glyphshow
13.110352 0.000000 m /s glyphshow
18.320312 0.000000 m /e glyphshow
24.472656 0.000000 m /one glyphshow
30.834961 0.000000 m /one glyphshow
37.197266 0.000000 m /eight glyphshow
grestore
gsave
72 47.52 m
518.4 47.52 l
518.4 198.72 l
72 198.72 l
cl
1.000 setgray
fill
grestore
0.800 setlinewidth
0 setlinecap
gsave
/o {
gsave
newpath
translate
0.8 setlinewidth
1 setlinejoin
0 setlinecap
0 0 m
0 -3.5 l

gsave
0.000 setgray
fill
grestore
stroke
grestore
} bind def
146.4 47.52 o
grestore
/DejaVuSans findfont
14.000 scalefont
setfont
gsave
108.400000 29.879375 translate
0.000000 rotate
0.000000 0.000000 m /m glyphshow
13.637695 0.000000 m /a glyphshow
22.216797 0.000000 m /s glyphshow
29.510742 0.000000 m /t glyphshow
35.000000 0.000000 m /e glyphshow
43.613281 0.000000 m /r glyphshow
49.369141 0.000000 m /hyphen glyphshow
54.420898 0.000000 m /f glyphshow
59.349609 0.000000 m /u glyphshow
68.222656 0.000000 m /l glyphshow
72.112305 0.000000 m /l glyphshow
grestore
gsave
/o {
gsave
newpath
translate
0.8 setlinewidth
1 setlinejoin
0 setlinecap
0 0 m
0 -3.5 l

gsave
0.000 setgray
fill
grestore
stroke
grestore
} bind def
295.2 47.52 o
grestore
gsave
251.684375 29.879375 translate
0.000000 rotate
0.000000 0.000000 m /m glyphshow
13.637695 0.000000 m /a glyphshow
22.216797 0.000000 m /s glyphshow
29.510742 0.000000 m /t glyphshow
35.000000 0.000000 m /e glyphshow
43.613281 0.000000 m /r glyphshow
49.369141 0.000000 m /hyphen glyphshow
54.420898 0.000000 m /l glyphshow
58.310547 0.000000 m /o glyphshow
66.875977 0.000000 m /c glyphshow
74.573242 0.000000 m /a glyphshow
83.152344 0.000000 m /l glyphshow
grestore
gsave
/o {
gsave
newpath
translate
0.8 setlinewidth
1 setlinejoin
0 setlinecap
0 0 m
0 -3.5 l

gsave
0.000 setgray
fill
grestore
stroke
grestore
} bind def
444 47.52 o
grestore
gsave
426.304687 29.879375 translate
0.000000 rotate
0.000000 0.000000 m /A glyphshow
9.577148 0.000000 m /P glyphshow
18.019531 0.000000 m /L glyphshow
25.819336 0.000000 m /A glyphshow
grestore
gsave
/o {
gsave
newpath
translate
0.8 setlinewidth
1 setlinejoin
0 setlinecap
0 0 m
-3.5 0 l

gsave
0.000 setgray
fill
grestore
stroke
grestore
} bind def
72 47.52 o
grestore
/DejaVuSans findfont
10.000 scalefont
setfont
gsave
52.281250 43.723125 translate
0.000000 rotate
0.000000 0.000000 m /five glyphshow
6.362305 0.000000 m /zero glyphshow
grestore
gsave
/o {
gsave
newpath
translate
0.8 setlinewidth
1 setlinejoin
0 setlinecap
0 0 m
-3.5 0 l

gsave
0.000 setgray
fill
grestore
stroke
grestore
} bind def
72 69.12 o
grestore
gsave
52.281250 65.323125 translate
0.000000 rotate
0.000000 0.000000 m /six glyphshow
6.362305 0.000000 m /zero glyphshow
grestore
gsave
/o {
gsave
newpath
translate
0.8 setlinewidth
1 setlinejoin
0 setlinecap
0 0 m
-3.5 0 l

gsave
0.000 setgray
fill
grestore
stroke
grestore
} bind def
72 90.72 o
grestore
gsave
52.281250 86.923125 translate
0.000000 rotate
0.000000 0.000000 m /seven glyphshow
6.362305 0.000000 m /zero glyphshow
grestore
gsave
/o {
gsave
newpath
translate
0.8 setlinewidth
1 setlinejoin
0 setlinecap
0 0 m
-3.5 0 l

gsave
0.000 setgray
fill
grestore
stroke
grestore
} bind def
72 112.32 o
grestore
gsave
52.281250 108.523125 translate
0.000000 rotate
0.000000 0.000000 m /eight glyphshow
6.362305 0.000000 m /zero glyphshow
grestore
gsave
/o {
gsave
newpath
translate
0.8 setlinewidth
1 setlinejoin
0 setlinecap
0 0 m
-3.5 0 l

gsave
0.000 setgray
fill
grestore
stroke
grestore
} bind def
72 133.92 o
grestore
gsave
52.281250 130.123125 translate
0.000000 rotate
0.000000 0.000000 m /nine glyphshow
6.362305 0.000000 m /zero glyphshow
grestore
gsave
/o {
gsave
newpath
translate
0.8 setlinewidth
1 setlinejoin
0 setlinecap
0 0 m
-3.5 0 l

gsave
0.000 setgray
fill
grestore
stroke
grestore
} bind def
72 155.52 o
grestore
gsave
45.921875 151.723125 translate
0.000000 rotate
0.000000 0.000000 m /one glyphshow
6.362305 0.000000 m /zero glyphshow
12.724609 0.000000 m /zero glyphshow
grestore
gsave
/o {
gsave
newpath
translate
0.8 setlinewidth
1 setlinejoin
0 setlinecap
0 0 m
-3.5 0 l

gsave
0.000 setgray
fill
grestore
stroke
grestore
} bind def
72 177.12 o
grestore
gsave
45.921875 173.323125 translate
0.000000 rotate
0.000000 0.000000 m /one glyphshow
6.362305 0.000000 m /one glyphshow
12.724609 0.000000 m /zero glyphshow
grestore
gsave
/o {
gsave
newpath
translate
0.8 setlinewidth
1 setlinejoin
0 setlinecap
0 0 m
-3.5 0 l

gsave
0.000 setgray
fill
grestore
stroke
grestore
} bind def
72 198.72 o
grestore
gsave
45.921875 194.923125 translate
0.000000 rotate
0.000000 0.000000 m /one glyphshow
6.362305 0.000000 m /two glyphshow
12.724609 0.000000 m /zero glyphshow
grestore
/DejaVuSans findfont
14.000 scalefont
setfont
gsave
33.381750 59.174687 translate
90.000000 rotate
0.000000 0.000000 m /E glyphshow
8.845703 0.000000 m /x glyphshow
17.130859 0.000000 m /e glyphshow
25.744141 0.000000 m /c glyphshow
33.441406 0.000000 m /u glyphshow
42.314453 0.000000 m /t glyphshow
47.803711 0.000000 m /i glyphshow
51.693359 0.000000 m /o glyphshow
60.258789 0.000000 m /n glyphshow
69.131836 0.000000 m /space glyphshow
73.582031 0.000000 m /t glyphshow
79.071289 0.000000 m /i glyphshow
82.960938 0.000000 m /m glyphshow
96.598633 0.000000 m /e glyphshow
105.211914 0.000000 m /space glyphshow
109.662109 0.000000 m /parenleft glyphshow
115.124023 0.000000 m /s glyphshow
122.417969 0.000000 m /parenright glyphshow
grestore
1.000 setlinewidth
2 setlinecap
0.678 0.847 0.902 setrgbcolor
gsave
446.4 151.2 72 47.52 clipbox
121.6 95.560142 m
121.6 19.488991 l
stroke
grestore
gsave
446.4 151.2 72 47.52 clipbox
121.6 216.782359 m
121.6 396.311635 l
stroke
grestore
gsave
446.4 151.2 72 47.52 clipbox
114.16 19.488991 m
129.04 19.488991 l
stroke
grestore
gsave
446.4 151.2 72 47.52 clipbox
114.16 396.311635 m
129.04 396.311635 l
stroke
grestore
0.565 0.933 0.565 setrgbcolor
gsave
446.4 151.2 72 47.52 clipbox
171.2 174.490489 m
171.2 138.793031 l
stroke
grestore
gsave
446.4 151.2 72 47.52 clipbox
171.2 201.630907 m
171.2 241.440371 l
stroke
grestore
gsave
446.4 151.2 72 47.52 clipbox
163.76 138.793031 m
178.64 138.793031 l
stroke
grestore
gsave
446.4 151.2 72 47.52 clipbox
163.76 241.440371 m
178.64 241.440371 l
stroke
grestore
0 setlinecap
0.000 setgray
gsave
446.4 151.2 72 47.52 clipbox
/o {
gsave
newpath
translate
1.0 setlinewidth
1 setlinejoin
0 setlinecap
0 -3 m
0.795609 -3 1.55874 -2.683901 2.12132 -2.12132 c
2.683901 -1.55874 3 -0.795609 3 0 c
3 0.795609 2.683901 1.55874 2.12132 2.12132 c
1.55874 2.683901 0.795609 3 0 3 c
-0.795609 3 -1.55874 2.683901 -2.12132 2.12132 c
-2.683901 1.55874 -3 0.795609 -3 0 c
-3 -0.795609 -2.683901 -1.55874 -2.12132 -2.12132 c
-1.55874 -2.683901 -0.795609 -3 0 -3 c
cl

gsave
grestore
stroke
grestore
} bind def
171.2 33.7368 o
171.2 77.2388 o
171.2 103.22 o
171.2 110.41 o
171.2 56.1297 o
171.2 99.6905 o
171.2 85.6105 o
171.2 33.0902 o
171.2 244.152 o
171.2 293.983 o
171.2 255.425 o
171.2 263.974 o
171.2 265.85 o
grestore
2 setlinecap
0.678 0.847 0.902 setrgbcolor
gsave
446.4 151.2 72 47.52 clipbox
270.4 17.513228 m
270.4 -1 l
stroke
grestore
gsave
446.4 151.2 72 47.52 clipbox
270.4 140.075367 m
270.4 175.469364 l
stroke
grestore
gsave
446.4 151.2 72 47.52 clipbox

stroke
grestore
gsave
446.4 151.2 72 47.52 clipbox
262.96 175.469364 m
277.84 175.469364 l
stroke
grestore
0.565 0.933 0.565 setrgbcolor
gsave
446.4 151.2 72 47.52 clipbox
320 152.144675 m
320 121.814369 l
stroke
grestore
gsave
446.4 151.2 72 47.52 clipbox
320 174.551925 m
320 206.457719 l
stroke
grestore
gsave
446.4 151.2 72 47.52 clipbox
312.56 121.814369 m
327.44 121.814369 l
stroke
grestore
gsave
446.4 151.2 72 47.52 clipbox
312.56 206.457719 m
327.44 206.457719 l
stroke
grestore
0 setlinecap
0.000 setgray
gsave
446.4 151.2 72 47.52 clipbox
/o {
gsave
newpath
translate
1.0 setlinewidth
1 setlinejoin
0 setlinecap
0 -3 m
0.795609 -3 1.55874 -2.683901 2.12132 -2.12132 c
2.683901 -1.55874 3 -0.795609 3 0 c
3 0.795609 2.683901 1.55874 2.12132 2.12132 c
1.55874 2.683901 0.795609 3 0 3 c
-0.795609 3 -1.55874 2.683901 -2.12132 2.12132 c
-2.683901 1.55874 -3 0.795609 -3 0 c
-3 -0.795609 -2.683901 -1.55874 -2.12132 -2.12132 c
-1.55874 -2.683901 -0.795609 -3 0 -3 c
cl

gsave
grestore
stroke
grestore
} bind def
320 109.744 o
320 -1 o
320 -1 o
320 52.9083 o
320 77.8236 o
320 25.2835 o
320 -1 o
320 -1 o
320 55.3145 o
320 48.2039 o
320 19.5817 o
320 115.15 o
320 -1 o
320 -1 o
320 58.6279 o
320 215.028 o
320 220.664 o
320 217.371 o
320 216.692 o
320 222.009 o
320 227.276 o
320 240.456 o
320 209.474 o
320 219.235 o
320 217.67 o
320 219.603 o
320 224.633 o
grestore
2 setlinecap
0.678 0.847 0.902 setrgbcolor
gsave
446.4 151.2 72 47.52 clipbox
419.2 427.414754 m
419.2 -1 l
stroke
grestore
gsave
446.4 151.2 72 47.52 clipbox

stroke
grestore
gsave
446.4 151.2 72 47.52 clipbox

stroke
grestore
gsave
446.4 151.2 72 47.52 clipbox

stroke
grestore
0.565 0.933 0.565 setrgbcolor
gsave
446.4 151.2 72 47.52 clipbox

stroke
grestore
gsave
446.4 151.2 72 47.52 clipbox

stroke
grestore
gsave
446.4 151.2 72 47.52 clipbox

stroke
grestore
gsave
446.4 151.2 72 47.52 clipbox

stroke
grestore
0 setlinecap
0.000 setgray
gsave
446.4 151.2 72 47.52 clipbox
/o {
gsave
newpath
translate
1.0 setlinewidth
1 setlinejoin
0 setlinecap
0 -3 m
0.795609 -3 1.55874 -2.683901 2.12132 -2.12132 c
2.683901 -1.55874 3 -0.795609 3 0 c
3 0.795609 2.683901 1.55874 2.12132 2.12132 c
1.55874 2.683901 0.795609 3 0 3 c
-0.795609 3 -1.55874 2.683901 -2.12132 2.12132 c
-2.683901 1.55874 -3 0.795609 -3 0 c
-3 -0.795609 -2.683901 -1.55874 -2.12132 -2.12132 c
-1.55874 -2.683901 -0.795609 -3 0 -3 c
cl

gsave
grestore
stroke
grestore
} bind def
468.8 433 o
468.8 32.8618 o
468.8 433 o
468.8 433 o
468.8 336.22 o
468.8 433 o
468.8 433 o
468.8 427.69 o
468.8 85.7779 o
468.8 433 o
grestore
0 setlinejoin
[] 0 setdash
0.678 0.847 0.902 setrgbcolor
gsave
446.4 151.2 72 47.52 clipbox
106.72 95.560142 m
136.48 95.560142 l
136.48 216.782359 l
106.72 216.782359 l
106.72 95.560142 l
cl
gsave
fill
grestore
stroke
grestore
0.565 0.933 0.565 setrgbcolor
gsave
446.4 151.2 72 47.52 clipbox
156.32 174.490489 m
186.08 174.490489 l
186.08 201.630907 l
156.32 201.630907 l
156.32 174.490489 l
cl
gsave
fill
grestore
stroke
grestore
0.678 0.847 0.902 setrgbcolor
gsave
446.4 151.2 72 47.52 clipbox
255.52 17.513228 m
285.28 17.513228 l
285.28 140.075367 l
255.52 140.075367 l
255.52 17.513228 l
cl
gsave
fill
grestore
stroke
grestore
0.565 0.933 0.565 setrgbcolor
gsave
446.4 151.2 72 47.52 clipbox
305.12 152.144675 m
334.88 152.144675 l
334.88 174.551925 l
305.12 174.551925 l
305.12 152.144675 l
cl
gsave
fill
grestore
stroke
grestore
0.678 0.847 0.902 setrgbcolor
gsave
446.4 151.2 72 47.52 clipbox
404.32 427.414754 m
434.08 427.414754 l
434.08 855.527053 l
404.32 855.527053 l
404.32 427.414754 l
cl
gsave
fill
grestore
stroke
grestore
0.565 0.933 0.565 setrgbcolor
gsave
446.4 151.2 72 47.52 clipbox
453.92 912.769621 m
483.68 912.769621 l
483.68 919.756907 l
453.92 919.756907 l
453.92 912.769621 l
cl
gsave
fill
grestore
stroke
grestore
1 setlinejoin
2 setlinecap
[] 0 setdash
1.000 0.647 0.000 setrgbcolor
gsave
446.4 151.2 72 47.52 clipbox
106.72 173.830826 m
136.48 173.830826 l
stroke
grestore
0 setlinecap
[3.7 1.6] 0 setdash
0.173 0.627 0.173 setrgbcolor
gsave
446.4 151.2 72 47.52 clipbox
121.6 171.171514 m
stroke
grestore
0 setlinejoin
[] 0 setdash
gsave
446.4 151.2 72 47.52 clipbox
/o {
gsave
newpath
translate
1.0 setlinewidth
0 setlinejoin
0 setlinecap
0 3 m
-3 -3 l
3 -3 l
cl

gsave
0.173 0.627 0.173 setrgbcolor
fill
grestore
stroke
grestore
} bind def
121.6 171.172 o
grestore
1 setlinejoin
2 setlinecap
1.000 0.647 0.000 setrgbcolor
gsave
446.4 151.2 72 47.52 clipbox
156.32 184.047957 m
186.08 184.047957 l
stroke
grestore
0 setlinecap
[3.7 1.6] 0 setdash
0.173 0.627 0.173 setrgbcolor
gsave
446.4 151.2 72 47.52 clipbox
171.2 183.157928 m
stroke
grestore
0 setlinejoin
[] 0 setdash
gsave
446.4 151.2 72 47.52 clipbox
/o {
gsave
newpath
translate
1.0 setlinewidth
0 setlinejoin
0 setlinecap
0 3 m
-3 -3 l
3 -3 l
cl

gsave
0.173 0.627 0.173 setrgbcolor
fill
grestore
stroke
grestore
} bind def
171.2 183.158 o
grestore
1 setlinejoin
2 setlinecap
1.000 0.647 0.000 setrgbcolor
gsave
446.4 151.2 72 47.52 clipbox
255.52 70.777112 m
285.28 70.777112 l
stroke
grestore
0 setlinecap
[3.7 1.6] 0 setdash
0.173 0.627 0.173 setrgbcolor
gsave
446.4 151.2 72 47.52 clipbox
270.4 68.549526 m
stroke
grestore
0 setlinejoin
[] 0 setdash
gsave
446.4 151.2 72 47.52 clipbox
/o {
gsave
newpath
translate
1.0 setlinewidth
0 setlinejoin
0 setlinecap
0 3 m
-3 -3 l
3 -3 l
cl

gsave
0.173 0.627 0.173 setrgbcolor
fill
grestore
stroke
grestore
} bind def
270.4 68.5495 o
grestore
1 setlinejoin
2 setlinecap
1.000 0.647 0.000 setrgbcolor
gsave
446.4 151.2 72 47.52 clipbox
305.12 162.871039 m
334.88 162.871039 l
stroke
grestore
0 setlinecap
[3.7 1.6] 0 setdash
0.173 0.627 0.173 setrgbcolor
gsave
446.4 151.2 72 47.52 clipbox
320 154.738787 m
stroke
grestore
0 setlinejoin
[] 0 setdash
gsave
446.4 151.2 72 47.52 clipbox
/o {
gsave
newpath
translate
1.0 setlinewidth
0 setlinejoin
0 setlinecap
0 3 m
-3 -3 l
3 -3 l
cl

gsave
0.173 0.627 0.173 setrgbcolor
fill
grestore
stroke
grestore
} bind def
320 154.739 o
grestore
1 setlinejoin
2 setlinecap
1.000 0.647 0.000 setrgbcolor
gsave
446.4 151.2 72 47.52 clipbox

stroke
grestore
0 setlinecap
[3.7 1.6] 0 setdash
0.173 0.627 0.173 setrgbcolor
gsave
446.4 151.2 72 47.52 clipbox

stroke
grestore
0 setlinejoin
[] 0 setdash
gsave
446.4 151.2 72 47.52 clipbox
/o {
gsave
newpath
translate
1.0 setlinewidth
0 setlinejoin
0 setlinecap
0 3 m
-3 -3 l
3 -3 l
cl

gsave
0.173 0.627 0.173 setrgbcolor
fill
grestore
stroke
grestore
} bind def
grestore
1 setlinejoin
2 setlinecap
1.000 0.647 0.000 setrgbcolor
gsave
446.4 151.2 72 47.52 clipbox

stroke
grestore
0 setlinecap
[3.7 1.6] 0 setdash
0.173 0.627 0.173 setrgbcolor
gsave
446.4 151.2 72 47.52 clipbox

stroke
grestore
0 setlinejoin
[] 0 setdash
gsave
446.4 151.2 72 47.52 clipbox
/o {
gsave
newpath
translate
1.0 setlinewidth
0 setlinejoin
0 setlinecap
0 3 m
-3 -3 l
3 -3 l
cl

gsave
0.173 0.627 0.173 setrgbcolor
fill
grestore
stroke
grestore
} bind def
grestore
2 setlinecap
[] 0 setdash
1.000 0.000 0.000 setrgbcolor
gsave
72 47.52 m
72 198.72 l
stroke
grestore
gsave
518.4 47.52 m
518.4 198.72 l
stroke
grestore
gsave
72 47.52 m
518.4 47.52 l
stroke
grestore
gsave
72 198.72 m
518.4 198.72 l
stroke
grestore

end
showpage
