48.38705658912659
47.62264013290405
26.45765495300293
5.342390537261963
6.40621542930603
5.436279058456421
270.4388566017151
225.39714336395264
6.0003156661987305
225.40416026115417
360.4909293651581
265.01659417152405
389.6901614665985
6.790908336639404
5.517410516738892
405.4635293483734
450.5840849876404
19.049312591552734
11.323224544525146
21.063145637512207
6.894678831100464
180.39945554733276
24.492589712142944
8.300787925720215
225.52012252807617
270.45439291000366
3.9345219135284424
219.2918186187744
360.4703006744385
3.339790105819702
39.44505834579468
5.077982664108276
360.4292607307434
8.96644926071167
405.43929982185364
443.04244017601013
4.499748229980469
149.57849550247192
2.685072660446167
429.0799217224121
4.476354598999023
225.35264778137207
4.9557037353515625
410.8542528152466
4.259101152420044
180.33994030952454
3.4811360836029053
4.918574810028076
8.752668380737305
5.057288885116577
4.936829566955566
450.4575548171997
270.36787128448486
225.36046743392944
383.9316473007202
4.401064395904541
4.590539455413818
7.154521703720093
4.096987009048462
8.60378122329712
16.52359104156494
3.525822877883911
5.680426120758057
4.209012031555176
225.35139775276184
11.339746236801147
405.43640971183777
180.34139013290405
86.00260066986084
4.649197578430176
6.060511112213135
185.91754269599915
154.69671607017517
16.902082681655884
2.9206526279449463
4.436217546463013
5.201899766921997
7.311169385910034
450.4645199775696
8.80449914932251
3.6489551067352295
135.3242256641388
3.5683324337005615
4.924716234207153
2.3685717582702637
450.45136618614197
73.61603116989136
4.133811950683594
4.752693176269531
21.060059547424316
184.89961957931519
450.44312024116516
270.368350982666
28.016098260879517
4.303206205368042
450.44528007507324
39.77044081687927
5.0868635177612305
5.1243085861206055
4.901929140090942
4.394797325134277
