632648.0121807449
624514.5538212205
626553.6941576242
621644.3211313108
623392.0969795395
632815.3235073491
618016.3349205453
632482.6300595957
615312.4252807145
618241.9840535558
623484.8863477514
626368.3478749973
617709.3976299759
618441.5453482845
615527.6683481972
618482.2119950186
617961.4262710334
616916.2023815247
618372.2175023429
624129.2617640294
618042.0595120548
617106.190737747
622082.2277795644
620120.1554504255
626344.2200033929
629266.9184120782
615127.4500579713
616334.4330622489
624162.4641146194
615748.1735667163
624559.4730602994
616857.4696332191
628863.4544291759
617840.1020479919
620926.97578659
622124.1537571183
619665.5413238514
616062.6076466626
615124.4180672864
616424.0639205881
620325.4583530868
616243.3513375783
615239.4757835276
620163.6097136395
615864.8536016478
616947.6520958089
618646.3399580684
631291.1759283959
615406.0920663
622982.946232843
617631.4006679012
617606.6690908512
624247.0822668979
625290.647901018
625719.2228868145
622814.7431452366
622339.0019244897
630610.1510771017
616845.4695318863
618826.6364840632
621307.2229177279
618914.1154652529
623349.3801279997
628681.655236765
626568.8117813603
625225.7261110006
620634.4477993684
617974.4905897899
622192.7202301162
616227.6093370118
623088.2118371628
619786.7841239886
615117.2469598452
629107.2351346636
615150.0265839865
615127.4500579711
616412.9024714726
615122.8401473571
626483.7753943237
621249.8592751528
619097.3381140772
616190.8066473983
624882.7221863436
625200.8793652273
620918.6717218198
617323.7262293111
619661.0114163721
616048.8560942406
620768.1541758454
617221.8236412351
622866.8370951636
616273.8630329606
623164.6195121789
619523.2854778119
617157.9644768721
617629.1760727501
629025.4360967386
620013.3519831364
619449.6969081067
615121.1878945632
616306.104404446
