450.5125584602356
4.235496759414673
450.2935779094696
450.3039062023163
281.820924282074
450.38515734672546
99.16460037231445
360.2800018787384
16.23635196685791
199.08678317070007
405.2986812591553
450.2952792644501
83.06617426872253
180.3500599861145
3.806706190109253
90.13310360908508
442.55133032798767
1.576758861541748
18.724043130874634
450.548232793808
7.611603021621704
2.4129014015197754
450.3258719444275
93.71839928627014
450.3139615058899
84.82195019721985
5.1639320850372314
80.97203660011292
85.62621712684631
5.49099588394165
52.3261833190918
334.9958004951477
368.8302888870239
13.550729990005493
103.11722707748413
3.0822441577911377
334.3864412307739
1.023270845413208
2.3348400592803955
12.64195466041565
388.88324999809265
428.84141755104065
11.798907995223999
0.8153128623962402
28.509072065353394
3.7000720500946045
315.24102115631104
4.37035346031189
1.8517274856567383
450.3215961456299
44.60359239578247
4.927828311920166
450.3148441314697
185.04339480400085
360.2465500831604
427.23258233070374
450.3106882572174
451.5258803367615
13.529879808425903
420.7576560974121
307.5357894897461
18.07071590423584
1.217094898223877
179.47521233558655
450.5976138114929
303.8570055961609
0.371478796005249
16.412988901138306
178.14074301719666
0.6020452976226807
405.3020238876343
450.31770491600037
3.2715988159179688
225.48392844200134
1.4044206142425537
3.6117286682128906
14.879245281219482
2.790207624435425
450.29663825035095
450.28632855415344
450.3456132411957
36.07956027984619
450.3053460121155
450.6616117954254
450.3278625011444
10.850709199905396
286.85628867149353
1.0207905769348145
30.49345850944519
307.83784532546997
45.1122100353241
0.7818286418914795
445.52345848083496
405.65932059288025
33.974127769470215
324.85473465919495
450.6557593345642
191.2317612171173
2.290224313735962
3.8854146003723145
1.510103702545166
