5.842948975523933
4.239804010313305
4.196078127808827
3.8200746452201964
5.580003079365841
4.16173533940787
5.001448936404375
4.1980715569741145
4.341576420642797
4.747907819978094
4.808131438106343
4.626067179595554
3.977655793532906
3.7917350059273174
3.9116653677437365
5.337055436965533
4.225006930965599
4.489225566483418
5.477429811060427
3.770039420558892
3.869777141673645
4.257146612558425
4.713760593416185
4.510231452205675
4.558614830465988
4.0066017822694056
5.1047708271060195
4.344780870605187
5.816706100239176
4.616545041988797
3.8185491775127223
4.269445622741457
5.577226200136217
3.2867494724742916
5.4029104199426286
5.375114494994497
3.422128737624431
4.035494010801813
4.490086154140239
5.459152320284702
3.4787020449495345
4.696421863190939
4.124512189773767
4.814896032878355
4.006311596605679
4.753527900649129
4.4129260053516655
3.7333000629820847
4.533625588816207
5.2157822588843
4.013452296846177
5.004379847468988
4.695442255794569
4.695040347756463
5.464398409125868
4.2971287252472905
4.461748181717455
3.916231870181692
4.273755299223565
4.195677685861147
4.205791308356635
4.726275181591802
4.25427557980842
4.033292180256498
4.574377511043065
4.502618147375329
5.629745243433665
4.922751100563374
4.988322942227336
5.433059137041903
4.531168373079101
4.1942678773796125
4.408005112577362
4.197530396802125
3.7517543973794427
4.335224512088656
4.431849540205605
4.30639785318025
4.716345107030852
4.2058020541098005
3.919909027993842
5.313833519170707
3.17957439700137
4.1179640504145585
4.437784657524562
5.566341406163653
5.688334773906637
5.366178283789313
4.954684291803824
4.39599252792463
4.375869045267535
5.392968674046707
4.4223377005563185
4.692933318617829
4.251117304259782
4.979791471762995
5.071062527269274
4.304700973626853
3.958554377206189
4.399267350246134
4.664433438814466
